[
    {
       "id": 1,
       "name": "Husky",
       "image": "https://encrypted-tbn0.gstatic.com/images?q=tbn:ANd9GcR92qobq3rEQiXmLL22fQDIjwx5-ZaVx2ZQlQ&usqp=CAU",
       "content": "The Siberian Husky is a medium-sized working sled dog breed. The breed belongs to the Spitz genetic family. It is recognizable by its thickly furred double coat, erect triangular ears, and distinctive markings, and is smaller than the similar-looking Alaskan Malamute"
    },
    {
        "id": 2,
        "name": "Golden Retriever",
        "image": "https://image.petmd.com/files/styles/863x625/public/2022-10/iStock-1397267365.jpg",
        "content": "The Golden Retriever is a sturdy, muscular dog of medium size, famous for the dense, lustrous coat of gold that gives the breed its name. The broad head, with its friendly and intelligent eyes, short ears, and straight muzzle, is a breed hallmark."
    },
    {
        "id": 3,
        "name": "Labrador Retriever",
        "image": "https://img.freepik.com/free-photo/labrador-retrieve_155003-149.jpg?w=2000",
        "content": "The Labrador Retriever or simply Labrador is a British breed of retriever gun dog. It was developed in the United Kingdom from fishing dogs imported from the colony of Newfoundland, and was named after the Labrador region of that colony."
    }
]